\relax 
\providecommand\hyper@newdestlabel[2]{}
\catcode `"\active 
\catcode `<\active 
\catcode `>\active 
\@nameuse{es@quoting}
\catcode `'\active 
\providecommand\HyperFirstAtBeginDocument{\AtBeginDocument}
\HyperFirstAtBeginDocument{\ifx\hyper@anchor\@undefined
\global\let\oldcontentsline\contentsline
\gdef\contentsline#1#2#3#4{\oldcontentsline{#1}{#2}{#3}}
\global\let\oldnewlabel\newlabel
\gdef\newlabel#1#2{\newlabelxx{#1}#2}
\gdef\newlabelxx#1#2#3#4#5#6{\oldnewlabel{#1}{{#2}{#3}}}
\AtEndDocument{\ifx\hyper@anchor\@undefined
\let\contentsline\oldcontentsline
\let\newlabel\oldnewlabel
\fi}
\fi}
\global\let\hyper@last\relax 
\gdef\HyperFirstAtBeginDocument#1{#1}
\providecommand\HyField@AuxAddToFields[1]{}
\providecommand\HyField@AuxAddToCoFields[2]{}
\providecommand \oddpage@label [2]{}
\babel@aux{spanish}{}
\@writefile{toc}{\contentsline {chapter}{\numberline {1}Objetivos}{1}{chapter.1}}
\@writefile{lof}{\addvspace {10\p@ }}
\@writefile{lot}{\addvspace {10\p@ }}
\@writefile{lof}{\contentsline {figure}{\numberline {1.1}{\ignorespaces Diagrama de bloques general\relax }}{1}{figure.caption.2}}
\providecommand*\caption@xref[2]{\@setref\relax\@undefined{#1}}
\newlabel{fig:diag-gen}{{1.1}{1}{Diagrama de bloques general\relax }{figure.caption.2}{}}
\@writefile{toc}{\contentsline {chapter}{\numberline {2}Descripci\IeC {\'o}n de bloques}{2}{chapter.2}}
\@writefile{lof}{\addvspace {10\p@ }}
\@writefile{lot}{\addvspace {10\p@ }}
\@writefile{toc}{\contentsline {section}{\numberline {2.1}Raspberry Pi}{2}{section.2.1}}
\@writefile{toc}{\contentsline {section}{\numberline {2.2}Pantalla TFT}{2}{section.2.2}}
\@writefile{toc}{\contentsline {section}{\numberline {2.3}Conversor Digital-Anal\IeC {\'o}gico}{2}{section.2.3}}
\@writefile{toc}{\contentsline {section}{\numberline {2.4}Filtro activo}{3}{section.2.4}}
\@writefile{toc}{\contentsline {section}{\numberline {2.5}Amplificador de instrumentaci\IeC {\'o}n}{3}{section.2.5}}
\@writefile{toc}{\contentsline {section}{\numberline {2.6}Generador de se\IeC {\~n}ales: sinusoidal, cuadrada y triangular}{3}{section.2.6}}
