\relax 
\providecommand\hyper@newdestlabel[2]{}
\catcode `"\active 
\catcode `<\active 
\catcode `>\active 
\@nameuse{es@quoting}
\catcode `'\active 
\providecommand\HyperFirstAtBeginDocument{\AtBeginDocument}
\HyperFirstAtBeginDocument{\ifx\hyper@anchor\@undefined
\global\let\oldcontentsline\contentsline
\gdef\contentsline#1#2#3#4{\oldcontentsline{#1}{#2}{#3}}
\global\let\oldnewlabel\newlabel
\gdef\newlabel#1#2{\newlabelxx{#1}#2}
\gdef\newlabelxx#1#2#3#4#5#6{\oldnewlabel{#1}{{#2}{#3}}}
\AtEndDocument{\ifx\hyper@anchor\@undefined
\let\contentsline\oldcontentsline
\let\newlabel\oldnewlabel
\fi}
\fi}
\global\let\hyper@last\relax 
\gdef\HyperFirstAtBeginDocument#1{#1}
\providecommand\HyField@AuxAddToFields[1]{}
\providecommand\HyField@AuxAddToCoFields[2]{}
\providecommand \oddpage@label [2]{}
\babel@aux{spanish}{}
\@writefile{toc}{\contentsline {chapter}{\numberline {1}Introducci\IeC {\'o}n}{1}{chapter.1}}
\@writefile{lof}{\addvspace {10\p@ }}
\@writefile{lot}{\addvspace {10\p@ }}
\@writefile{toc}{\contentsline {section}{\numberline {1.1}Objetivo}{1}{section.1.1}}
\@writefile{toc}{\contentsline {section}{\numberline {1.2}Diagrama de bloques}{2}{section.1.2}}
\@writefile{lof}{\contentsline {figure}{\numberline {1.1}{\ignorespaces Diagrama de bloques de generador de se\IeC {\~n}ales arbitrarias.\relax }}{2}{figure.caption.2}}
\@writefile{toc}{\contentsline {subsection}{Alimentaciones (Ex)}{2}{section*.3}}
\@writefile{toc}{\contentsline {subsection}{Conexiones (Cx)}{2}{section*.4}}
\@writefile{lof}{\contentsline {figure}{\numberline {1.2}{\ignorespaces C2\relax }}{3}{figure.caption.5}}
\@writefile{lof}{\contentsline {figure}{\numberline {1.3}{\ignorespaces C4\relax }}{3}{figure.caption.6}}
\@writefile{toc}{\contentsline {chapter}{\numberline {2}Interfaz Gr\IeC {\'a}fica}{4}{chapter.2}}
\@writefile{lof}{\addvspace {10\p@ }}
\@writefile{lot}{\addvspace {10\p@ }}
\@writefile{toc}{\contentsline {section}{\numberline {2.1}Desarrollo}{4}{section.2.1}}
\@writefile{toc}{\contentsline {section}{\numberline {2.2}Capturas y referencias}{5}{section.2.2}}
\@writefile{lof}{\contentsline {figure}{\numberline {2.1}{\ignorespaces Referencias de botones y men\IeC {\'u}s 1\relax }}{5}{figure.caption.7}}
\@writefile{lof}{\contentsline {figure}{\numberline {2.2}{\ignorespaces Referencias de botones y men\IeC {\'u}s 2\relax }}{6}{figure.caption.8}}
\@writefile{toc}{\contentsline {section}{\numberline {2.3}Explicaci\IeC {\'o}n de referencias}{6}{section.2.3}}
\@writefile{toc}{\contentsline {section}{\numberline {2.4}Funcionalidades principales}{7}{section.2.4}}
\@writefile{toc}{\contentsline {section}{\numberline {2.5}Representaci\IeC {\'o}n de funciones}{7}{section.2.5}}
\@writefile{toc}{\contentsline {subsection}{Senoidal}{7}{section*.9}}
\@writefile{toc}{\contentsline {subsection}{Cuadrada}{8}{section*.10}}
\@writefile{toc}{\contentsline {subsection}{Triangular}{8}{section*.11}}
\@writefile{toc}{\contentsline {subsection}{Arbitraria}{9}{section*.12}}
\@writefile{toc}{\contentsline {chapter}{\numberline {3}Raspberry Pi}{10}{chapter.3}}
\@writefile{lof}{\addvspace {10\p@ }}
\@writefile{lot}{\addvspace {10\p@ }}
\@writefile{toc}{\contentsline {section}{\numberline {3.1}Codigo Assembly}{10}{section.3.1}}
\@writefile{toc}{\contentsline {section}{\numberline {3.2}Conexiones}{11}{section.3.2}}
