EESchema Schematic File Version 4
EELAYER 26 0
EELAYER END
$Descr A4 11693 8268
encoding utf-8
Sheet 1 1
Title ""
Date ""
Rev ""
Comp ""
Comment1 ""
Comment2 ""
Comment3 ""
Comment4 ""
$EndDescr
$Comp
L Connector:Screw_Terminal_01x03 J1
U 1 1 5C137A52
P 1450 2950
F 0 "J1" H 1450 2650 50  0000 C CNN
F 1 "Screw_Terminal_01x03" H 1650 2750 50  0000 C CNN
F 2 "TerminalBlock:TerminalBlock_bornier-3_P5.08mm" H 1450 2950 50  0001 C CNN
F 3 "~" H 1450 2950 50  0001 C CNN
	1    1450 2950
	-1   0    0    1   
$EndComp
Wire Wire Line
	3600 3200 3600 3150
Wire Wire Line
	3600 1750 3600 1800
$Comp
L power:GND #PWR04
U 1 1 5C138087
P 3600 2150
F 0 "#PWR04" H 3600 1900 50  0001 C CNN
F 1 "GND" H 3605 1977 50  0000 C CNN
F 2 "" H 3600 2150 50  0001 C CNN
F 3 "" H 3600 2150 50  0001 C CNN
	1    3600 2150
	1    0    0    -1  
$EndComp
Wire Wire Line
	3600 2100 3600 2150
$Comp
L power:GND #PWR05
U 1 1 5C138146
P 3600 3550
F 0 "#PWR05" H 3600 3300 50  0001 C CNN
F 1 "GND" H 3605 3377 50  0000 C CNN
F 2 "" H 3600 3550 50  0001 C CNN
F 3 "" H 3600 3550 50  0001 C CNN
	1    3600 3550
	1    0    0    -1  
$EndComp
Wire Wire Line
	3600 3550 3600 3500
$Comp
L Regulator_Linear:L7815 U2
U 1 1 5C1382EE
P 4850 2250
F 0 "U2" H 4850 2492 50  0000 C CNN
F 1 "L7815" H 4850 2401 50  0000 C CNN
F 2 "Package_TO_SOT_THT:TO-220-3_Vertical" H 4875 2100 50  0001 L CIN
F 3 "http://www.st.com/content/ccc/resource/technical/document/datasheet/41/4f/b3/b0/12/d4/47/88/CD00000444.pdf/files/CD00000444.pdf/jcr:content/translations/en.CD00000444.pdf" H 4850 2200 50  0001 C CNN
	1    4850 2250
	1    0    0    -1  
$EndComp
$Comp
L Device:C C6
U 1 1 5C138373
P 4250 2450
F 0 "C6" H 4365 2496 50  0000 L CNN
F 1 "0.33uF" H 4365 2405 50  0000 L CNN
F 2 "Capacitor_THT:C_Disc_D5.0mm_W2.5mm_P2.50mm" H 4288 2300 50  0001 C CNN
F 3 "~" H 4250 2450 50  0001 C CNN
	1    4250 2450
	1    0    0    -1  
$EndComp
$Comp
L Device:CP C3
U 1 1 5C138470
P 3600 1950
F 0 "C3" H 3718 1996 50  0000 L CNN
F 1 "2200uF" H 3718 1905 50  0000 L CNN
F 2 "Capacitor_THT:CP_Radial_D12.5mm_P5.00mm" H 3638 1800 50  0001 C CNN
F 3 "~" H 3600 1950 50  0001 C CNN
	1    3600 1950
	1    0    0    -1  
$EndComp
$Comp
L Device:CP C4
U 1 1 5C1384B6
P 3600 3350
F 0 "C4" H 3718 3396 50  0000 L CNN
F 1 "2200uF" H 3718 3305 50  0000 L CNN
F 2 "Capacitor_THT:CP_Radial_D12.5mm_P5.00mm" H 3638 3200 50  0001 C CNN
F 3 "~" H 3600 3350 50  0001 C CNN
	1    3600 3350
	1    0    0    -1  
$EndComp
Wire Wire Line
	4250 2300 4250 2250
Wire Wire Line
	4250 3200 4250 3150
$Comp
L power:GND #PWR07
U 1 1 5C1387F4
P 4250 2650
F 0 "#PWR07" H 4250 2400 50  0001 C CNN
F 1 "GND" H 4255 2477 50  0000 C CNN
F 2 "" H 4250 2650 50  0001 C CNN
F 3 "" H 4250 2650 50  0001 C CNN
	1    4250 2650
	1    0    0    -1  
$EndComp
Wire Wire Line
	4250 2650 4250 2600
$Comp
L power:GND #PWR08
U 1 1 5C138998
P 4250 3550
F 0 "#PWR08" H 4250 3300 50  0001 C CNN
F 1 "GND" H 4255 3377 50  0000 C CNN
F 2 "" H 4250 3550 50  0001 C CNN
F 3 "" H 4250 3550 50  0001 C CNN
	1    4250 3550
	1    0    0    -1  
$EndComp
Wire Wire Line
	4250 3550 4250 3500
$Comp
L Regulator_Linear:L7915 U3
U 1 1 5C138B77
P 4850 3150
F 0 "U3" H 4850 2908 50  0000 C CNN
F 1 "L7915" H 4850 2999 50  0000 C CNN
F 2 "Package_TO_SOT_THT:TO-220-3_Vertical" H 4850 2950 50  0001 C CIN
F 3 "http://www.st.com/content/ccc/resource/technical/document/datasheet/c9/16/86/41/c7/2b/45/f2/CD00000450.pdf/files/CD00000450.pdf/jcr:content/translations/en.CD00000450.pdf" H 4850 3150 50  0001 C CNN
	1    4850 3150
	1    0    0    1   
$EndComp
$Comp
L power:GND #PWR010
U 1 1 5C138EFE
P 4850 2650
F 0 "#PWR010" H 4850 2400 50  0001 C CNN
F 1 "GND" H 4855 2477 50  0000 C CNN
F 2 "" H 4850 2650 50  0001 C CNN
F 3 "" H 4850 2650 50  0001 C CNN
	1    4850 2650
	1    0    0    -1  
$EndComp
Wire Wire Line
	4850 2650 4850 2550
$Comp
L power:GND #PWR011
U 1 1 5C139852
P 4850 3550
F 0 "#PWR011" H 4850 3300 50  0001 C CNN
F 1 "GND" H 4855 3377 50  0000 C CNN
F 2 "" H 4850 3550 50  0001 C CNN
F 3 "" H 4850 3550 50  0001 C CNN
	1    4850 3550
	1    0    0    -1  
$EndComp
Wire Wire Line
	4850 3550 4850 3450
$Comp
L Regulator_Linear:L7805 U1
U 1 1 5C139AED
P 4850 1250
F 0 "U1" H 4850 1492 50  0000 C CNN
F 1 "L7805" H 4850 1401 50  0000 C CNN
F 2 "Package_TO_SOT_THT:TO-220-3_Vertical" H 4875 1100 50  0001 L CIN
F 3 "http://www.st.com/content/ccc/resource/technical/document/datasheet/41/4f/b3/b0/12/d4/47/88/CD00000444.pdf/files/CD00000444.pdf/jcr:content/translations/en.CD00000444.pdf" H 4850 1200 50  0001 C CNN
	1    4850 1250
	1    0    0    -1  
$EndComp
Wire Wire Line
	4050 1750 3600 1750
Connection ~ 3600 1750
$Comp
L power:GND #PWR09
U 1 1 5C13C14B
P 4850 1650
F 0 "#PWR09" H 4850 1400 50  0001 C CNN
F 1 "GND" H 4855 1477 50  0000 C CNN
F 2 "" H 4850 1650 50  0001 C CNN
F 3 "" H 4850 1650 50  0001 C CNN
	1    4850 1650
	1    0    0    -1  
$EndComp
Wire Wire Line
	4050 1750 4050 1250
Wire Wire Line
	4850 1650 4850 1550
Wire Wire Line
	4050 1250 4250 1250
Wire Wire Line
	4050 1750 4050 2250
Wire Wire Line
	4050 2250 4250 2250
Connection ~ 4050 1750
$Comp
L Device:C C5
U 1 1 5C13E399
P 4250 1450
F 0 "C5" H 4365 1496 50  0000 L CNN
F 1 "0.33uF" H 4365 1405 50  0000 L CNN
F 2 "Capacitor_THT:C_Disc_D5.0mm_W2.5mm_P2.50mm" H 4288 1300 50  0001 C CNN
F 3 "~" H 4250 1450 50  0001 C CNN
	1    4250 1450
	1    0    0    -1  
$EndComp
Wire Wire Line
	4250 1300 4250 1250
$Comp
L power:GND #PWR06
U 1 1 5C13E3A2
P 4250 1650
F 0 "#PWR06" H 4250 1400 50  0001 C CNN
F 1 "GND" H 4255 1477 50  0000 C CNN
F 2 "" H 4250 1650 50  0001 C CNN
F 3 "" H 4250 1650 50  0001 C CNN
	1    4250 1650
	1    0    0    -1  
$EndComp
Wire Wire Line
	4250 1650 4250 1600
Wire Wire Line
	3600 3150 4250 3150
Connection ~ 3600 3150
$Comp
L Device:C C7
U 1 1 5C13EFC9
P 4250 3350
F 0 "C7" H 4365 3396 50  0000 L CNN
F 1 "0.33uF" H 4365 3305 50  0000 L CNN
F 2 "Capacitor_THT:C_Disc_D5.0mm_W2.5mm_P2.50mm" H 4288 3200 50  0001 C CNN
F 3 "~" H 4250 3350 50  0001 C CNN
	1    4250 3350
	1    0    0    -1  
$EndComp
Wire Wire Line
	4250 1250 4550 1250
Connection ~ 4250 1250
Wire Wire Line
	4250 2250 4550 2250
Connection ~ 4250 2250
Wire Wire Line
	4250 3150 4550 3150
Connection ~ 4250 3150
$Comp
L Device:C C8
U 1 1 5C142C6F
P 5300 1450
F 0 "C8" H 5415 1496 50  0000 L CNN
F 1 "0.1uF" H 5415 1405 50  0000 L CNN
F 2 "Capacitor_THT:C_Disc_D5.0mm_W2.5mm_P2.50mm" H 5338 1300 50  0001 C CNN
F 3 "~" H 5300 1450 50  0001 C CNN
	1    5300 1450
	1    0    0    -1  
$EndComp
Wire Wire Line
	5300 1300 5300 1250
$Comp
L power:GND #PWR012
U 1 1 5C142C77
P 5300 1650
F 0 "#PWR012" H 5300 1400 50  0001 C CNN
F 1 "GND" H 5305 1477 50  0000 C CNN
F 2 "" H 5300 1650 50  0001 C CNN
F 3 "" H 5300 1650 50  0001 C CNN
	1    5300 1650
	1    0    0    -1  
$EndComp
Wire Wire Line
	5300 1650 5300 1600
$Comp
L Device:C C9
U 1 1 5C14312A
P 5300 2450
F 0 "C9" H 5415 2496 50  0000 L CNN
F 1 "0.1uF" H 5415 2405 50  0000 L CNN
F 2 "Capacitor_THT:C_Disc_D5.0mm_W2.5mm_P2.50mm" H 5338 2300 50  0001 C CNN
F 3 "~" H 5300 2450 50  0001 C CNN
	1    5300 2450
	1    0    0    -1  
$EndComp
Wire Wire Line
	5300 2300 5300 2250
$Comp
L power:GND #PWR013
U 1 1 5C143132
P 5300 2650
F 0 "#PWR013" H 5300 2400 50  0001 C CNN
F 1 "GND" H 5305 2477 50  0000 C CNN
F 2 "" H 5300 2650 50  0001 C CNN
F 3 "" H 5300 2650 50  0001 C CNN
	1    5300 2650
	1    0    0    -1  
$EndComp
Wire Wire Line
	5300 2650 5300 2600
$Comp
L Device:C C10
U 1 1 5C14365C
P 5300 3350
F 0 "C10" H 5415 3396 50  0000 L CNN
F 1 "0.1uF" H 5415 3305 50  0000 L CNN
F 2 "Capacitor_THT:C_Disc_D5.0mm_W2.5mm_P2.50mm" H 5338 3200 50  0001 C CNN
F 3 "~" H 5300 3350 50  0001 C CNN
	1    5300 3350
	1    0    0    -1  
$EndComp
Wire Wire Line
	5300 3200 5300 3150
$Comp
L power:GND #PWR014
U 1 1 5C143664
P 5300 3550
F 0 "#PWR014" H 5300 3300 50  0001 C CNN
F 1 "GND" H 5305 3377 50  0000 C CNN
F 2 "" H 5300 3550 50  0001 C CNN
F 3 "" H 5300 3550 50  0001 C CNN
	1    5300 3550
	1    0    0    -1  
$EndComp
Wire Wire Line
	5300 3550 5300 3500
Wire Wire Line
	5150 3150 5300 3150
Wire Wire Line
	5150 2250 5300 2250
Wire Wire Line
	5150 1250 5300 1250
$Comp
L Device:D_Bridge_+A-A D1
U 1 1 5C1450EF
P 2350 2650
F 0 "D1" H 2691 2696 50  0000 L CNN
F 1 "D_Bridge_+A-A" H 2691 2605 50  0000 L CNN
F 2 "Diode_THT:Diode_Bridge_Round_D8.9mm" H 2350 2650 50  0001 C CNN
F 3 "~" H 2350 2650 50  0001 C CNN
	1    2350 2650
	1    0    0    -1  
$EndComp
Wire Wire Line
	2350 2950 2350 3150
Wire Wire Line
	2350 2350 2350 1750
Wire Wire Line
	1650 2850 2050 2850
Wire Wire Line
	2050 2850 2050 2650
Wire Wire Line
	1650 3050 2650 3050
Wire Wire Line
	2650 3050 2650 2650
$Comp
L power:GND #PWR01
U 1 1 5C148E34
P 1750 3200
F 0 "#PWR01" H 1750 2950 50  0001 C CNN
F 1 "GND" H 1755 3027 50  0000 C CNN
F 2 "" H 1750 3200 50  0001 C CNN
F 3 "" H 1750 3200 50  0001 C CNN
	1    1750 3200
	1    0    0    -1  
$EndComp
Wire Wire Line
	1650 2950 1750 2950
Wire Wire Line
	1750 2950 1750 3200
$Comp
L Connector:Screw_Terminal_01x04 J2
U 1 1 5C149BC5
P 6300 2450
F 0 "J2" H 6380 2442 50  0000 L CNN
F 1 "Screw_Terminal_01x04" H 6380 2351 50  0000 L CNN
F 2 "TerminalBlock:TerminalBlock_bornier-4_P5.08mm" H 6300 2450 50  0001 C CNN
F 3 "~" H 6300 2450 50  0001 C CNN
	1    6300 2450
	1    0    0    -1  
$EndComp
Wire Wire Line
	5300 1250 6100 1250
Wire Wire Line
	6100 1250 6100 2350
Connection ~ 5300 1250
Wire Wire Line
	5300 2250 6050 2250
Wire Wire Line
	6050 2250 6050 2450
Wire Wire Line
	6050 2450 6100 2450
Connection ~ 5300 2250
Wire Wire Line
	5300 3150 6050 3150
Wire Wire Line
	6050 3150 6050 2550
Wire Wire Line
	6050 2550 6100 2550
Connection ~ 5300 3150
$Comp
L power:GND #PWR015
U 1 1 5C14BF6C
P 6250 2900
F 0 "#PWR015" H 6250 2650 50  0001 C CNN
F 1 "GND" H 6255 2727 50  0000 C CNN
F 2 "" H 6250 2900 50  0001 C CNN
F 3 "" H 6250 2900 50  0001 C CNN
	1    6250 2900
	1    0    0    -1  
$EndComp
Wire Wire Line
	6250 2900 6250 2800
Wire Wire Line
	6250 2800 6100 2800
Wire Wire Line
	6100 2800 6100 2650
Wire Wire Line
	3050 1750 3050 1800
$Comp
L power:GND #PWR02
U 1 1 5C14CF5E
P 3050 2150
F 0 "#PWR02" H 3050 1900 50  0001 C CNN
F 1 "GND" H 3055 1977 50  0000 C CNN
F 2 "" H 3050 2150 50  0001 C CNN
F 3 "" H 3050 2150 50  0001 C CNN
	1    3050 2150
	1    0    0    -1  
$EndComp
Wire Wire Line
	3050 2100 3050 2150
$Comp
L Device:CP C1
U 1 1 5C14CF65
P 3050 1950
F 0 "C1" H 3168 1996 50  0000 L CNN
F 1 "2200uF" H 3168 1905 50  0000 L CNN
F 2 "Capacitor_THT:CP_Radial_D12.5mm_P5.00mm" H 3088 1800 50  0001 C CNN
F 3 "~" H 3050 1950 50  0001 C CNN
	1    3050 1950
	1    0    0    -1  
$EndComp
Wire Wire Line
	3050 3150 3050 3200
$Comp
L power:GND #PWR03
U 1 1 5C14DB4F
P 3050 3550
F 0 "#PWR03" H 3050 3300 50  0001 C CNN
F 1 "GND" H 3055 3377 50  0000 C CNN
F 2 "" H 3050 3550 50  0001 C CNN
F 3 "" H 3050 3550 50  0001 C CNN
	1    3050 3550
	1    0    0    -1  
$EndComp
Wire Wire Line
	3050 3500 3050 3550
$Comp
L Device:CP C2
U 1 1 5C14DB56
P 3050 3350
F 0 "C2" H 3168 3396 50  0000 L CNN
F 1 "2200uF" H 3168 3305 50  0000 L CNN
F 2 "Capacitor_THT:CP_Radial_D12.5mm_P5.00mm" H 3088 3200 50  0001 C CNN
F 3 "~" H 3050 3350 50  0001 C CNN
	1    3050 3350
	1    0    0    -1  
$EndComp
Wire Wire Line
	2350 3150 3050 3150
Connection ~ 3050 3150
Wire Wire Line
	3050 3150 3600 3150
Wire Wire Line
	2350 1750 3050 1750
Connection ~ 3050 1750
Wire Wire Line
	3050 1750 3600 1750
$EndSCHEMATC
