<Qucs Schematic 0.0.19>
<Properties>
  <View=0,-160,1435,749,1,0,0>
  <Grid=10,10,1>
  <DataSet=CircuitoGenFunc.dat>
  <DataDisplay=CircuitoGenFunc.dpl>
  <OpenDisplay=1>
  <Script=CircuitoGenFunc.m>
  <RunScript=0>
  <showFrame=0>
  <FrameText0=Título>
  <FrameText1=Dibujado por:>
  <FrameText2=Fecha:>
  <FrameText3=Revisión:>
</Properties>
<Symbol>
  <.ID -20 -16 SUB>
  <Line -20 20 40 0 #000080 2 1>
  <Line 20 20 0 -40 #000080 2 1>
  <Line -20 -20 40 0 #000080 2 1>
  <Line -20 20 0 -40 #000080 2 1>
</Symbol>
<Components>
  <.SW SW1 1 260 -130 0 77 0 0 "TR1" 1 "lin" 1 "res" 1 "0 Ohm" 1 "2 kOhm" 1 "11" 1>
  <OpAmp OP2 1 1240 300 -26 -88 1 0 "1e6" 1 "15 V" 0>
  <GND * 1 1190 490 0 0 0 0>
  <GND * 1 1070 200 0 0 0 0>
  <R R6 1 1130 110 -26 15 0 0 "1 kOhm" 1 "26.85" 0 "0.0" 0 "0.0" 0 "26.85" 0 "US" 0>
  <R R1 1 1130 320 -26 15 0 0 "1 kOhm" 1 "26.85" 0 "0.0" 0 "0.0" 0 "26.85" 0 "US" 0>
  <R R5 1 1250 110 -26 15 0 0 "5 kOhm" 1 "26.85" 0 "0.0" 0 "0.0" 0 "26.85" 0 "US" 0>
  <R R2 1 1190 440 -92 -26 0 3 "5 kOhm" 1 "26.85" 0 "0.0" 0 "0.0" 0 "26.85" 0 "US" 0>
  <Vdc V2 1 1070 150 -76 -26 0 3 "0.2 V" 1>
  <OpAmp OP1 1 910 320 -26 -88 1 0 "1e6" 1 "15 V" 0>
  <GND * 1 860 360 0 0 0 0>
  <GND * 1 390 390 0 0 0 0>
  <IProbe Iin 1 440 280 -26 16 0 0>
  <OpAmp OP3 1 580 300 -26 -88 1 0 "1e6" 1 "15 V" 0>
  <GND *1 1 530 340 0 0 0 0>
  <R R8 1 580 180 -26 15 0 0 "res" 1 "26.85" 0 "0.0" 0 "0.0" 0 "26.85" 0 "US" 0>
  <Idc I4 1 290 340 18 -26 0 1 "2 mA" 1>
  <.TR TR1 1 70 -130 0 77 0 0 "lin" 1 "0" 1 "20 ms" 1 "1001" 0 "Trapezoidal" 0 "2" 0 "1 ns" 0 "1e-16" 0 "150" 0 "0.001" 0 "1 pA" 0 "1 uV" 0 "26.85" 0 "1e-3" 0 "1e-6" 0 "1" 0 "CroutLU" 0 "no" 0 "yes" 0 "0" 0>
  <R R4 1 890 200 -26 15 0 0 "2.2 MOhm" 1 "26.85" 0 "0.0" 0 "0.0" 0 "26.85" 0 "US" 0>
  <R R9 1 780 300 -26 15 0 0 "2.2 MOhm" 1 "26.85" 0 "0.0" 0 "0.0" 0 "26.85" 0 "US" 0>
  <C C1 1 690 300 -26 17 0 0 "100 nF" 1 "" 0 "neutral" 0>
  <Irect I5 1 390 340 24 -26 0 1 "2 mA" 1 "5 ms" 1 "5 ms" 1 "1 ns" 0 "1 ns" 0 "0 ns" 0>
</Components>
<Wires>
  <1160 320 1190 320 "" 0 0 0 "">
  <1190 320 1210 320 "" 0 0 0 "">
  <1190 320 1190 410 "" 0 0 0 "">
  <1190 470 1190 490 "" 0 0 0 "">
  <1280 110 1340 110 "" 0 0 0 "">
  <1340 110 1340 300 "" 0 0 0 "">
  <1280 300 1340 300 "" 0 0 0 "">
  <1160 110 1180 110 "" 0 0 0 "">
  <1180 110 1220 110 "" 0 0 0 "">
  <1180 110 1180 280 "" 0 0 0 "">
  <1180 280 1210 280 "" 0 0 0 "">
  <1070 110 1070 120 "" 0 0 0 "">
  <1070 110 1100 110 "" 0 0 0 "">
  <1070 180 1070 200 "" 0 0 0 "">
  <950 320 970 320 "" 0 0 0 "">
  <970 320 1100 320 "Vm" 1090 270 93 "">
  <970 200 970 320 "" 0 0 0 "">
  <920 200 970 200 "" 0 0 0 "">
  <830 300 880 300 "" 0 0 0 "">
  <830 200 830 300 "" 0 0 0 "">
  <830 200 860 200 "" 0 0 0 "">
  <860 340 880 340 "" 0 0 0 "">
  <860 340 860 360 "" 0 0 0 "">
  <810 300 830 300 "" 0 0 0 "">
  <390 370 390 380 "" 0 0 0 "">
  <390 280 410 280 "" 0 0 0 "">
  <390 280 390 310 "" 0 0 0 "">
  <620 300 630 300 "" 0 0 0 "">
  <530 320 550 320 "" 0 0 0 "">
  <530 320 530 340 "" 0 0 0 "">
  <520 180 550 180 "" 0 0 0 "">
  <470 280 520 280 "" 0 0 0 "">
  <520 280 550 280 "" 0 0 0 "">
  <520 180 520 280 "" 0 0 0 "">
  <610 180 630 180 "" 0 0 0 "">
  <630 300 660 300 "Vc" 680 270 11 "">
  <630 180 630 300 "" 0 0 0 "">
  <720 300 750 300 "" 0 0 0 "">
  <390 380 390 390 "" 0 0 0 "">
  <290 380 390 380 "" 0 0 0 "">
  <290 370 290 380 "" 0 0 0 "">
  <290 280 390 280 "" 0 0 0 "">
  <290 280 290 310 "" 0 0 0 "">
  <1340 300 1340 300 "Vo" 1370 270 0 "">
</Wires>
<Diagrams>
</Diagrams>
<Paintings>
</Paintings>
