EESchema Schematic File Version 4
LIBS:CircuitoSalida-cache
EELAYER 26 0
EELAYER END
$Descr A4 11693 8268
encoding utf-8
Sheet 1 1
Title ""
Date ""
Rev ""
Comp ""
Comment1 ""
Comment2 ""
Comment3 ""
Comment4 ""
$EndDescr
$Comp
L Amplifier_Operational:TL082 U3
U 1 1 5C11ED7B
P 5850 2550
F 0 "U3" H 5850 2917 50  0000 C CNN
F 1 "TL082" H 5850 2826 50  0000 C CNN
F 2 "Package_DIP:DIP-8_W7.62mm_LongPads" H 5850 2550 50  0001 C CNN
F 3 "http://www.ti.com/lit/ds/symlink/tl081.pdf" H 5850 2550 50  0001 C CNN
	1    5850 2550
	1    0    0    -1  
$EndComp
$Comp
L Analog_DAC:DAC0808_DIP U1
U 1 1 5C149F23
P 3600 2100
F 0 "U1" H 3600 2878 50  0000 C CNN
F 1 "DAC0808_DIP" H 3600 2787 50  0000 C CNN
F 2 "Package_DIP:DIP-16_W7.62mm_LongPads" H 3600 2100 50  0001 C CNN
F 3 "http://www.ti.com/lit/ds/symlink/dac0808.pdf" H 3600 2100 50  0001 C CNN
	1    3600 2100
	1    0    0    -1  
$EndComp
Wire Wire Line
	3600 2700 3600 2600
$Comp
L Device:R R1
U 1 1 5C149F2B
P 4600 1700
F 0 "R1" V 4393 1700 50  0000 C CNN
F 1 "1k" V 4484 1700 50  0000 C CNN
F 2 "Resistor_THT:R_Axial_DIN0207_L6.3mm_D2.5mm_P10.16mm_Horizontal" V 4530 1700 50  0001 C CNN
F 3 "~" H 4600 1700 50  0001 C CNN
	1    4600 1700
	0    1    1    0   
$EndComp
Wire Wire Line
	4000 1700 4250 1700
$Comp
L Device:R R3
U 1 1 5C149F3F
P 4950 1950
F 0 "R3" H 5020 1996 50  0000 L CNN
F 1 "100" H 5020 1905 50  0000 L CNN
F 2 "Resistor_THT:R_Axial_DIN0207_L6.3mm_D2.5mm_P10.16mm_Horizontal" V 4880 1950 50  0001 C CNN
F 3 "~" H 4950 1950 50  0001 C CNN
	1    4950 1950
	1    0    0    -1  
$EndComp
$Comp
L Device:R_POT_TRIM RV1
U 1 1 5C149F4D
P 4950 1400
F 0 "RV1" H 4880 1446 50  0000 R CNN
F 1 "10k" H 4880 1355 50  0000 R CNN
F 2 "Potentiometer_THT:Potentiometer_Bourns_3296W_Vertical" H 4950 1400 50  0001 C CNN
F 3 "~" H 4950 1400 50  0001 C CNN
	1    4950 1400
	1    0    0    -1  
$EndComp
Wire Wire Line
	4950 1550 4950 1600
Wire Wire Line
	5100 1400 5100 1600
Wire Wire Line
	5100 1600 4950 1600
Connection ~ 4950 1600
Wire Wire Line
	4950 2100 4950 2150
Wire Wire Line
	5300 1050 5300 2800
Wire Wire Line
	5300 2800 3700 2800
Wire Wire Line
	3700 2800 3700 2650
Wire Wire Line
	5250 2150 4950 2150
Connection ~ 4950 2150
Wire Wire Line
	4950 2150 4950 2700
$Comp
L Device:R R2
U 1 1 5C149F64
P 4250 2350
F 0 "R2" H 4320 2396 50  0000 L CNN
F 1 "1k" H 4320 2305 50  0000 L CNN
F 2 "Resistor_THT:R_Axial_DIN0207_L6.3mm_D2.5mm_P10.16mm_Horizontal" V 4180 2350 50  0001 C CNN
F 3 "~" H 4250 2350 50  0001 C CNN
	1    4250 2350
	1    0    0    -1  
$EndComp
Wire Wire Line
	4250 2500 4250 2700
Connection ~ 4250 2700
Wire Wire Line
	4250 2700 3600 2700
$Comp
L Device:C C1
U 1 1 5C149F70
P 4050 2450
F 0 "C1" H 4165 2496 50  0000 L CNN
F 1 "100 nF" H 4165 2405 50  0000 L CNN
F 2 "Capacitor_THT:C_Disc_D5.0mm_W2.5mm_P5.00mm" H 4088 2300 50  0001 C CNN
F 3 "~" H 4050 2450 50  0001 C CNN
	1    4050 2450
	1    0    0    -1  
$EndComp
Wire Wire Line
	4000 2200 4050 2200
Wire Wire Line
	4050 2200 4050 2300
Wire Wire Line
	4050 2600 4050 2650
Wire Wire Line
	4050 2650 3700 2650
Connection ~ 3700 2650
Wire Wire Line
	3700 2650 3700 2600
Wire Wire Line
	3200 2000 2650 2000
Wire Wire Line
	2650 2000 2650 1600
Wire Wire Line
	2650 1600 1700 1600
Wire Wire Line
	1700 1600 1700 1750
Wire Wire Line
	1700 1750 1800 1750
Wire Wire Line
	3200 1900 2700 1900
Wire Wire Line
	2700 1900 2700 1550
Wire Wire Line
	2700 1550 1650 1550
Wire Wire Line
	1650 1550 1650 1850
Wire Wire Line
	1650 1850 1800 1850
Wire Wire Line
	3200 1800 2750 1800
Wire Wire Line
	2750 1800 2750 1500
Wire Wire Line
	2750 1500 1600 1500
Wire Wire Line
	1600 1500 1600 1950
Wire Wire Line
	1600 1950 1800 1950
Wire Wire Line
	1800 2050 1550 2050
Wire Wire Line
	1550 2050 1550 1450
Wire Wire Line
	1550 1450 2800 1450
Wire Wire Line
	2800 1450 2800 1700
Wire Wire Line
	2800 1700 3200 1700
Wire Wire Line
	1800 2150 1700 2150
Wire Wire Line
	1700 2150 1700 2400
Wire Wire Line
	1700 2400 3200 2400
Wire Wire Line
	3200 2300 2350 2300
Wire Wire Line
	2350 2300 2350 2150
Wire Wire Line
	2350 2150 2300 2150
Wire Wire Line
	3200 2200 2400 2200
Wire Wire Line
	2400 2200 2400 1950
Wire Wire Line
	2400 1950 2300 1950
Wire Wire Line
	3200 2100 2450 2100
Wire Wire Line
	2450 2100 2450 1750
Wire Wire Line
	2450 1750 2300 1750
Wire Wire Line
	3600 2700 2550 2700
Wire Wire Line
	2550 2700 2550 2050
Wire Wire Line
	2550 2050 2300 2050
Connection ~ 3600 2700
Wire Wire Line
	4250 2700 4950 2700
Wire Wire Line
	5550 2650 5450 2650
$Comp
L Device:R_POT_TRIM RV2
U 1 1 5C149FB3
P 5850 1950
F 0 "RV2" H 5780 1996 50  0000 R CNN
F 1 "1k" H 5780 1905 50  0000 R CNN
F 2 "Potentiometer_THT:Potentiometer_Bourns_3296W_Vertical" H 5850 1950 50  0001 C CNN
F 3 "~" H 5850 1950 50  0001 C CNN
	1    5850 1950
	1    0    0    -1  
$EndComp
Wire Wire Line
	5450 2650 5450 1700
Wire Wire Line
	5450 1700 5850 1700
Wire Wire Line
	5850 1700 5850 1800
Connection ~ 5450 2650
Wire Wire Line
	5450 2650 4450 2650
Wire Wire Line
	6000 1950 6200 1950
Wire Wire Line
	6200 1950 6200 2550
Wire Wire Line
	6200 2550 6150 2550
Wire Wire Line
	5250 2150 5250 2450
Wire Wire Line
	5250 2450 5550 2450
Wire Wire Line
	4250 2200 4250 1700
Wire Wire Line
	4950 1600 4950 1700
Wire Wire Line
	4750 1700 4950 1700
Connection ~ 4950 1700
Wire Wire Line
	4950 1700 4950 1800
Wire Wire Line
	4450 1700 4350 1700
Wire Wire Line
	4350 1700 4350 1800
Wire Wire Line
	4350 1800 4000 1800
Wire Wire Line
	4000 2000 4450 2000
Wire Wire Line
	4450 2000 4450 2650
$Comp
L Analog_DAC:DAC0808_DIP U2
U 1 1 5C1B00D9
P 3600 4200
F 0 "U2" H 3600 4978 50  0000 C CNN
F 1 "DAC0808_DIP" H 3600 4887 50  0000 C CNN
F 2 "Package_DIP:DIP-16_W7.62mm_LongPads" H 3600 4200 50  0001 C CNN
F 3 "http://www.ti.com/lit/ds/symlink/dac0808.pdf" H 3600 4200 50  0001 C CNN
	1    3600 4200
	1    0    0    -1  
$EndComp
Wire Wire Line
	3600 4800 3600 4700
$Comp
L Device:R R4
U 1 1 5C1B00E1
P 4600 3800
F 0 "R4" V 4393 3800 50  0000 C CNN
F 1 "1k" V 4484 3800 50  0000 C CNN
F 2 "Resistor_THT:R_Axial_DIN0207_L6.3mm_D2.5mm_P10.16mm_Horizontal" V 4530 3800 50  0001 C CNN
F 3 "~" H 4600 3800 50  0001 C CNN
	1    4600 3800
	0    1    1    0   
$EndComp
$Comp
L Device:R R6
U 1 1 5C1B00F5
P 4950 4050
F 0 "R6" H 5020 4096 50  0000 L CNN
F 1 "100" H 5020 4005 50  0000 L CNN
F 2 "Resistor_THT:R_Axial_DIN0207_L6.3mm_D2.5mm_P10.16mm_Horizontal" V 4880 4050 50  0001 C CNN
F 3 "~" H 4950 4050 50  0001 C CNN
	1    4950 4050
	1    0    0    -1  
$EndComp
$Comp
L Device:R_POT_TRIM RV3
U 1 1 5C1B0103
P 4950 3500
F 0 "RV3" H 4880 3546 50  0000 R CNN
F 1 "1k" H 4880 3455 50  0000 R CNN
F 2 "Potentiometer_THT:Potentiometer_Bourns_3296W_Vertical" H 4950 3500 50  0001 C CNN
F 3 "~" H 4950 3500 50  0001 C CNN
	1    4950 3500
	1    0    0    -1  
$EndComp
Wire Wire Line
	4950 3650 4950 3700
Wire Wire Line
	5100 3500 5100 3700
Wire Wire Line
	5100 3700 4950 3700
Connection ~ 4950 3700
Wire Wire Line
	4950 3350 4950 3300
Wire Wire Line
	4950 3300 3600 3300
Wire Wire Line
	3600 3300 3600 3600
Wire Wire Line
	4950 4200 4950 4250
Wire Wire Line
	3700 4900 3700 4750
Wire Wire Line
	5250 4250 4950 4250
Connection ~ 4950 4250
Wire Wire Line
	4950 4250 4950 4800
$Comp
L Device:R R5
U 1 1 5C1B011E
P 4250 4450
F 0 "R5" H 4320 4496 50  0000 L CNN
F 1 "1k" H 4320 4405 50  0000 L CNN
F 2 "Resistor_THT:R_Axial_DIN0207_L6.3mm_D2.5mm_P10.16mm_Horizontal" V 4180 4450 50  0001 C CNN
F 3 "~" H 4250 4450 50  0001 C CNN
	1    4250 4450
	1    0    0    -1  
$EndComp
Wire Wire Line
	4000 3900 4250 3900
Wire Wire Line
	4250 3900 4250 4300
Wire Wire Line
	4250 4600 4250 4800
Connection ~ 4250 4800
Wire Wire Line
	4250 4800 3600 4800
$Comp
L Device:C C2
U 1 1 5C1B012A
P 4050 4550
F 0 "C2" H 4165 4596 50  0000 L CNN
F 1 "100 nF" H 4165 4505 50  0000 L CNN
F 2 "Capacitor_THT:C_Disc_D5.0mm_W2.5mm_P5.00mm" H 4088 4400 50  0001 C CNN
F 3 "~" H 4050 4550 50  0001 C CNN
	1    4050 4550
	1    0    0    -1  
$EndComp
Wire Wire Line
	4000 4300 4050 4300
Wire Wire Line
	4050 4300 4050 4400
Wire Wire Line
	4050 4700 4050 4750
Wire Wire Line
	4050 4750 3700 4750
Connection ~ 3700 4750
Wire Wire Line
	3700 4750 3700 4700
Wire Wire Line
	3200 4100 2650 4100
Wire Wire Line
	2650 4100 2650 3700
Wire Wire Line
	2650 3700 1700 3700
Wire Wire Line
	1700 3700 1700 3850
Wire Wire Line
	1700 3850 1800 3850
Wire Wire Line
	3200 4000 2700 4000
Wire Wire Line
	2700 4000 2700 3650
Wire Wire Line
	2700 3650 1650 3650
Wire Wire Line
	1650 3650 1650 3950
Wire Wire Line
	1650 3950 1800 3950
Wire Wire Line
	3200 3900 2750 3900
Wire Wire Line
	2750 3900 2750 3600
Wire Wire Line
	2750 3600 1600 3600
Wire Wire Line
	1600 3600 1600 4050
Wire Wire Line
	1600 4050 1800 4050
Wire Wire Line
	1800 4150 1550 4150
Wire Wire Line
	1550 4150 1550 3550
Wire Wire Line
	1550 3550 2800 3550
Wire Wire Line
	2800 3550 2800 3800
Wire Wire Line
	2800 3800 3200 3800
Wire Wire Line
	1800 4250 1700 4250
Wire Wire Line
	1700 4250 1700 4500
Wire Wire Line
	1700 4500 3200 4500
Wire Wire Line
	3200 4400 2350 4400
Wire Wire Line
	2350 4400 2350 4250
Wire Wire Line
	2350 4250 2300 4250
Wire Wire Line
	3200 4300 2400 4300
Wire Wire Line
	2400 4300 2400 4050
Wire Wire Line
	2400 4050 2300 4050
Wire Wire Line
	3200 4200 2450 4200
Wire Wire Line
	2450 4200 2450 3850
Wire Wire Line
	2450 3850 2300 3850
Wire Wire Line
	3600 4800 2550 4800
Wire Wire Line
	2550 4800 2550 4150
Wire Wire Line
	2550 4150 2300 4150
Connection ~ 3600 4800
Wire Wire Line
	4250 4800 4950 4800
$Comp
L Amplifier_Operational:TL082 U3
U 2 1 5C1B0163
P 5850 4650
F 0 "U3" H 5850 5017 50  0000 C CNN
F 1 "TL082" H 5850 4926 50  0000 C CNN
F 2 "Package_DIP:DIP-8_W7.62mm_LongPads" H 5850 4650 50  0001 C CNN
F 3 "http://www.ti.com/lit/ds/symlink/tl081.pdf" H 5850 4650 50  0001 C CNN
	2    5850 4650
	1    0    0    -1  
$EndComp
Wire Wire Line
	5550 4750 5450 4750
Wire Wire Line
	4450 4750 4450 4100
Wire Wire Line
	4450 4100 4000 4100
$Comp
L Device:R_POT_TRIM RV4
U 1 1 5C1B016D
P 5850 4050
F 0 "RV4" H 5780 4096 50  0000 R CNN
F 1 "1k" H 5780 4005 50  0000 R CNN
F 2 "Potentiometer_THT:Potentiometer_Bourns_3296W_Vertical" H 5850 4050 50  0001 C CNN
F 3 "~" H 5850 4050 50  0001 C CNN
	1    5850 4050
	1    0    0    -1  
$EndComp
Wire Wire Line
	5450 4750 5450 3800
Connection ~ 5450 4750
Wire Wire Line
	5450 4750 4450 4750
Wire Wire Line
	6000 4050 6200 4050
Wire Wire Line
	6200 4050 6200 4650
Wire Wire Line
	6200 4650 6150 4650
Wire Wire Line
	5250 4250 5250 4550
Wire Wire Line
	5250 4550 5550 4550
Wire Wire Line
	3600 1350 3600 1500
Wire Wire Line
	4950 3700 4950 3800
Wire Wire Line
	4750 3800 4950 3800
Connection ~ 4950 3800
Wire Wire Line
	4950 3800 4950 3900
Wire Wire Line
	4450 3800 4000 3800
Wire Wire Line
	4950 1050 4950 1250
Wire Wire Line
	4950 1050 5300 1050
Wire Wire Line
	3050 1350 3050 3300
Wire Wire Line
	3050 3300 3600 3300
Connection ~ 3600 3300
Wire Wire Line
	5300 2800 5300 4900
Connection ~ 5300 2800
Text Notes 2400 1100 0    50   ~ 0
Positivo
Text Notes 2350 3300 0    50   ~ 0
Negativo\n
$Comp
L Connector:Screw_Terminal_01x02 J4
U 1 1 5C275CF8
P 1400 6250
F 0 "J4" H 1320 5925 50  0000 C CNN
F 1 "Screw_Terminal_01x02" H 1320 6016 50  0000 C CNN
F 2 "TerminalBlock:TerminalBlock_bornier-2_P5.08mm" H 1400 6250 50  0001 C CNN
F 3 "~" H 1400 6250 50  0001 C CNN
	1    1400 6250
	-1   0    0    1   
$EndComp
$Comp
L ad827:ad827 U4
U 1 1 5C11DDFD
P 2650 6450
F 0 "U4" H 2650 7165 50  0000 C CNN
F 1 "ad827" H 2650 7074 50  0000 C CNN
F 2 "Package_SO:SOP-16_7.5x10.4mm_P1.27mm" H 2600 6900 50  0001 C CNN
F 3 "" H 2600 6900 50  0001 C CNN
	1    2650 6450
	1    0    0    -1  
$EndComp
Wire Wire Line
	1600 6150 2200 6150
$Comp
L Device:R_POT RV5
U 1 1 5C149F52
P 2650 5400
F 0 "RV5" V 2536 5400 50  0000 C CNN
F 1 "2k" V 2445 5400 50  0000 C CNN
F 2 "Potentiometer_BOURNS:bourns" H 2650 5400 50  0001 C CNN
F 3 "~" H 2650 5400 50  0001 C CNN
	1    2650 5400
	0    -1   -1   0   
$EndComp
Wire Wire Line
	2500 5400 2200 5400
Wire Wire Line
	2200 5400 2200 6150
Connection ~ 2200 6150
Wire Wire Line
	2200 6150 2300 6150
$Comp
L Amplifier_Operational:TL081 U5
U 1 1 5C169815
P 4650 6250
F 0 "U5" H 4991 6296 50  0000 L CNN
F 1 "TL081" H 4991 6205 50  0000 L CNN
F 2 "Package_DIP:DIP-8_W7.62mm_LongPads" H 4700 6300 50  0001 C CNN
F 3 "http://www.ti.com/lit/ds/symlink/tl081.pdf" H 4800 6400 50  0001 C CNN
	1    4650 6250
	1    0    0    -1  
$EndComp
$Comp
L Device:C C3
U 1 1 5C17A211
P 3400 6150
F 0 "C3" V 3148 6150 50  0000 C CNN
F 1 "100nF" V 3239 6150 50  0000 C CNN
F 2 "Capacitor_THT:C_Disc_D5.0mm_W2.5mm_P5.00mm" H 3438 6000 50  0001 C CNN
F 3 "~" H 3400 6150 50  0001 C CNN
	1    3400 6150
	0    1    1    0   
$EndComp
Wire Wire Line
	3000 6150 3050 6150
Wire Wire Line
	2650 5250 2650 5200
Wire Wire Line
	2650 5200 3050 5200
Wire Wire Line
	3050 5200 3050 6150
Connection ~ 3050 6150
Wire Wire Line
	3050 6150 3250 6150
$Comp
L Device:R R7
U 1 1 5C1AC850
P 3750 6350
F 0 "R7" H 3820 6396 50  0000 L CNN
F 1 "1M" H 3820 6305 50  0000 L CNN
F 2 "Resistor_THT:R_Axial_DIN0207_L6.3mm_D2.5mm_P10.16mm_Horizontal" V 3680 6350 50  0001 C CNN
F 3 "~" H 3750 6350 50  0001 C CNN
	1    3750 6350
	1    0    0    -1  
$EndComp
Wire Wire Line
	3550 6150 3750 6150
Wire Wire Line
	3750 6150 3750 6200
Wire Wire Line
	1750 7550 3750 7550
Wire Wire Line
	3750 6150 4350 6150
Connection ~ 3750 6150
Wire Wire Line
	4350 6350 4200 6350
Wire Wire Line
	4200 6350 4200 7000
Wire Wire Line
	4200 7000 5250 7000
Wire Wire Line
	5250 7000 5250 6250
Wire Wire Line
	5250 6250 4950 6250
Wire Wire Line
	3700 4900 5300 4900
Text GLabel 3750 800  3    50   Input ~ 0
15V
Text GLabel 4550 5950 1    50   Input ~ 0
15V
Text GLabel 4550 6550 3    50   Input ~ 0
-15V
Text GLabel 3650 800  3    50   Input ~ 0
-15V
Text GLabel 5050 1050 1    50   Input ~ 0
-15V
Text GLabel 3300 2700 3    50   Input ~ 0
GND
Text GLabel 2750 7550 3    50   Input ~ 0
GND
Text GLabel 3000 6450 2    50   Input ~ 0
15V
Text GLabel 2300 6450 0    50   Input ~ 0
-15V
$Comp
L Amplifier_Operational:TL082 U3
U 3 1 5C2C99FC
P 8700 1700
F 0 "U3" H 8658 1746 50  0000 L CNN
F 1 "TL082" H 8658 1655 50  0000 L CNN
F 2 "Package_DIP:DIP-8_W7.62mm_LongPads" H 8700 1700 50  0001 C CNN
F 3 "http://www.ti.com/lit/ds/symlink/tl081.pdf" H 8700 1700 50  0001 C CNN
	3    8700 1700
	1    0    0    -1  
$EndComp
Text GLabel 8600 1400 1    50   Input ~ 0
15V
Text GLabel 8600 2000 3    50   Input ~ 0
-15V
Text GLabel 3350 4800 3    50   Input ~ 0
GND
Text GLabel 3550 800  3    50   Input ~ 0
GND
Wire Wire Line
	3050 1350 3600 1350
Text GLabel 3450 800  3    50   Input ~ 0
5V
Text GLabel 3250 1350 1    50   Input ~ 0
5V
$Comp
L Device:R R8
U 1 1 5C33CB74
P 5500 6250
F 0 "R8" V 5293 6250 50  0000 C CNN
F 1 "1K" V 5384 6250 50  0000 C CNN
F 2 "Resistor_THT:R_Axial_DIN0207_L6.3mm_D2.5mm_P10.16mm_Horizontal" V 5430 6250 50  0001 C CNN
F 3 "~" H 5500 6250 50  0001 C CNN
	1    5500 6250
	0    1    1    0   
$EndComp
$Comp
L Device:R_POT_TRIM RV6
U 1 1 5C35EB95
P 5750 6450
F 0 "RV6" H 5680 6496 50  0000 R CNN
F 1 "10k" H 5680 6405 50  0000 R CNN
F 2 "Potentiometer_THT:Potentiometer_Bourns_3296W_Vertical" H 5750 6450 50  0001 C CNN
F 3 "~" H 5750 6450 50  0001 C CNN
	1    5750 6450
	1    0    0    -1  
$EndComp
Wire Wire Line
	5650 6250 5750 6250
Wire Wire Line
	5750 6250 5750 6300
Wire Wire Line
	5900 6450 5950 6450
Wire Wire Line
	5950 7550 3750 7550
Connection ~ 3750 7550
Wire Wire Line
	5350 6250 5250 6250
Connection ~ 5250 6250
Text GLabel 5750 6250 2    50   Input ~ 0
+In2
Text GLabel 2300 6650 0    50   Input ~ 0
+In2
Text GLabel 3100 6750 2    50   Input ~ 0
OUT
$Comp
L Device:R R9
U 1 1 5C37903D
P 2500 7250
F 0 "R9" V 2293 7250 50  0000 C CNN
F 1 "1k" V 2384 7250 50  0000 C CNN
F 2 "Resistor_THT:R_Axial_DIN0207_L6.3mm_D2.5mm_P10.16mm_Horizontal" V 2430 7250 50  0001 C CNN
F 3 "~" H 2500 7250 50  0001 C CNN
	1    2500 7250
	0    1    1    0   
$EndComp
$Comp
L Device:R_POT_TRIM RV7
U 1 1 5C3A57B2
P 3100 7250
F 0 "RV7" H 3031 7204 50  0000 R CNN
F 1 "10k" H 3031 7295 50  0000 R CNN
F 2 "Potentiometer_THT:Potentiometer_Bourns_3296W_Vertical" H 3100 7250 50  0001 C CNN
F 3 "~" H 3100 7250 50  0001 C CNN
	1    3100 7250
	0    -1   -1   0   
$EndComp
Wire Wire Line
	3000 6750 3100 6750
Wire Wire Line
	3100 7100 3100 6750
Wire Wire Line
	2950 7250 2750 7250
Wire Wire Line
	2300 6750 2200 6750
Wire Wire Line
	2200 6750 2200 7100
Wire Wire Line
	2200 7100 2750 7100
Wire Wire Line
	2750 7100 2750 7250
Connection ~ 2750 7250
Wire Wire Line
	2750 7250 2650 7250
Text GLabel 2350 7250 0    50   Input ~ 0
Offset
Wire Wire Line
	1600 6250 1750 6250
Wire Wire Line
	5950 6450 5950 7550
Wire Wire Line
	3750 6500 3750 7550
Wire Wire Line
	1750 6250 1750 7550
Connection ~ 1750 6250
Wire Wire Line
	1750 6250 2300 6250
$Comp
L Transistor_BJT:2N3904 Q1
U 1 1 5C49E26F
P 8350 5050
F 0 "Q1" H 8541 5096 50  0000 L CNN
F 1 "2N3904" H 8541 5005 50  0000 L CNN
F 2 "Package_TO_SOT_THT:TO-92_Inline" H 8550 4975 50  0001 L CIN
F 3 "https://www.fairchildsemi.com/datasheets/2N/2N3904.pdf" H 8350 5050 50  0001 L CNN
	1    8350 5050
	1    0    0    -1  
$EndComp
Text GLabel 8450 5250 3    50   Input ~ 0
GND
$Comp
L Device:R R11
U 1 1 5C4A82C1
P 8450 4600
F 0 "R11" H 8520 4646 50  0000 L CNN
F 1 "100" H 8520 4555 50  0000 L CNN
F 2 "Resistor_THT:R_Axial_DIN0207_L6.3mm_D2.5mm_P10.16mm_Horizontal" V 8380 4600 50  0001 C CNN
F 3 "~" H 8450 4600 50  0001 C CNN
	1    8450 4600
	1    0    0    -1  
$EndComp
$Comp
L Device:R R10
U 1 1 5C4A87CF
P 7900 5050
F 0 "R10" V 7693 5050 50  0000 C CNN
F 1 "5.6k" V 7784 5050 50  0000 C CNN
F 2 "Resistor_THT:R_Axial_DIN0207_L6.3mm_D2.5mm_P10.16mm_Horizontal" V 7830 5050 50  0001 C CNN
F 3 "~" H 7900 5050 50  0001 C CNN
	1    7900 5050
	0    1    1    0   
$EndComp
Wire Wire Line
	8050 5050 8150 5050
Wire Wire Line
	8450 4750 8450 4850
Wire Wire Line
	8450 4450 8450 4350
Text GLabel 8450 3750 1    50   Input ~ 0
15V
Text GLabel 2300 1850 2    50   Input ~ 0
Rele
Text GLabel 7750 5050 0    50   Input ~ 0
Rele
Text GLabel 8850 3750 1    50   Input ~ 0
Offset
Text GLabel 6200 2550 2    50   Input ~ 0
Off+
Text GLabel 6200 4650 2    50   Input ~ 0
Off-
Text GLabel 9250 3750 1    50   Input ~ 0
Off-
Text GLabel 9050 3750 1    50   Input ~ 0
Off+
Wire Wire Line
	5450 3800 5850 3800
Wire Wire Line
	5850 3800 5850 3900
$Comp
L rs12:rs12 K1
U 1 1 5C18B656
P 8850 4050
F 0 "K1" H 9480 4096 50  0000 L CNN
F 1 "rs12" H 9480 4005 50  0000 L CNN
F 2 "Potentiometer_BOURNS:rs12" H 9050 4500 50  0001 C CNN
F 3 "" H 9050 4500 50  0001 C CNN
	1    8850 4050
	1    0    0    -1  
$EndComp
$Comp
L Connector_Generic:Conn_02x05_Odd_Even J2
U 1 1 5C18C92B
P 2000 1950
F 0 "J2" H 2050 2367 50  0000 C CNN
F 1 "Conn_02x05_Odd_Even" H 2050 2276 50  0000 C CNN
F 2 "Connector_PinHeader_2.54mm:PinHeader_2x05_P2.54mm_Vertical" H 2000 1950 50  0001 C CNN
F 3 "~" H 2000 1950 50  0001 C CNN
	1    2000 1950
	1    0    0    -1  
$EndComp
$Comp
L Connector_Generic:Conn_02x05_Odd_Even J3
U 1 1 5C1A0CAF
P 2000 4050
F 0 "J3" H 2050 4467 50  0000 C CNN
F 1 "Conn_02x05_Odd_Even" H 2050 4376 50  0000 C CNN
F 2 "Connector_PinHeader_2.54mm:PinHeader_2x05_P2.54mm_Vertical" H 2000 4050 50  0001 C CNN
F 3 "~" H 2000 4050 50  0001 C CNN
	1    2000 4050
	1    0    0    -1  
$EndComp
$Comp
L Connector:Screw_Terminal_01x04 J1
U 1 1 5C1C016B
P 3550 600
F 0 "J1" V 3516 312 50  0000 R CNN
F 1 "Screw_Terminal_01x04" V 3425 312 50  0000 R CNN
F 2 "TerminalBlock:TerminalBlock_bornier-4_P5.08mm" H 3550 600 50  0001 C CNN
F 3 "~" H 3550 600 50  0001 C CNN
	1    3550 600 
	0    -1   -1   0   
$EndComp
$Comp
L Connector:Screw_Terminal_01x02 J5
U 1 1 5C126AFA
P 7200 5950
F 0 "J5" H 7280 5942 50  0000 L CNN
F 1 "Screw_Terminal_01x02" H 7280 5851 50  0000 L CNN
F 2 "TerminalBlock:TerminalBlock_bornier-2_P5.08mm" H 7200 5950 50  0001 C CNN
F 3 "~" H 7200 5950 50  0001 C CNN
	1    7200 5950
	1    0    0    -1  
$EndComp
Text GLabel 7000 5950 0    50   Input ~ 0
OUT
Text GLabel 7000 6050 0    50   Input ~ 0
GND
$EndSCHEMATC
