EESchema Schematic File Version 4
EELAYER 26 0
EELAYER END
$Descr A4 11693 8268
encoding utf-8
Sheet 1 1
Title ""
Date ""
Rev ""
Comp ""
Comment1 ""
Comment2 ""
Comment3 ""
Comment4 ""
$EndDescr
$Comp
L Analog_DAC:DAC0808_DIP U1
U 1 1 5C043DD3
P 5650 3500
F 0 "U1" H 5650 4278 50  0000 C CNN
F 1 "DAC0808_DIP" H 5650 4187 50  0000 C CNN
F 2 "Package_DIP:DIP-16_W7.62mm" H 5650 3500 50  0001 C CNN
F 3 "http://www.ti.com/lit/ds/symlink/dac0808.pdf" H 5650 3500 50  0001 C CNN
	1    5650 3500
	1    0    0    -1  
$EndComp
Wire Wire Line
	5650 4100 5650 4000
$Comp
L Device:R R1
U 1 1 5C04B43E
P 6650 3050
F 0 "R1" V 6443 3050 50  0000 C CNN
F 1 "1k" V 6534 3050 50  0000 C CNN
F 2 "Resistor_THT:R_Axial_DIN0207_L6.3mm_D2.5mm_P10.16mm_Horizontal" V 6580 3050 50  0001 C CNN
F 3 "~" H 6650 3050 50  0001 C CNN
	1    6650 3050
	0    1    1    0   
$EndComp
$Comp
L Device:R R2
U 1 1 5C04B505
P 6650 3200
F 0 "R2" V 6443 3200 50  0000 C CNN
F 1 "1k" V 6534 3200 50  0000 C CNN
F 2 "Resistor_THT:R_Axial_DIN0207_L6.3mm_D2.5mm_P10.16mm_Horizontal" V 6580 3200 50  0001 C CNN
F 3 "~" H 6650 3200 50  0001 C CNN
	1    6650 3200
	0    1    1    0   
$EndComp
Wire Wire Line
	6050 3100 6350 3100
Wire Wire Line
	6350 3100 6350 3050
Wire Wire Line
	6350 3050 6500 3050
Wire Wire Line
	6500 3200 6350 3200
Wire Wire Line
	6350 3200 6350 3100
Connection ~ 6350 3100
$Comp
L Device:R R3
U 1 1 5C04DBDA
P 7000 3350
F 0 "R3" H 7070 3396 50  0000 L CNN
F 1 "1k" H 7070 3305 50  0000 L CNN
F 2 "Resistor_THT:R_Axial_DIN0207_L6.3mm_D2.5mm_P10.16mm_Horizontal" V 6930 3350 50  0001 C CNN
F 3 "~" H 7000 3350 50  0001 C CNN
	1    7000 3350
	1    0    0    -1  
$EndComp
Wire Wire Line
	6800 3200 6850 3200
Wire Wire Line
	6850 3200 6850 3100
Wire Wire Line
	6850 3050 6800 3050
Wire Wire Line
	7000 3200 7000 3100
Wire Wire Line
	7000 3100 6850 3100
Connection ~ 6850 3100
Wire Wire Line
	6850 3100 6850 3050
$Comp
L Device:R_POT_TRIM RV1
U 1 1 5C051D95
P 7000 2800
F 0 "RV1" H 6930 2846 50  0000 R CNN
F 1 "1k" H 6930 2755 50  0000 R CNN
F 2 "Potentiometer_THT:Potentiometer_Bourns_3296W_Vertical" H 7000 2800 50  0001 C CNN
F 3 "~" H 7000 2800 50  0001 C CNN
	1    7000 2800
	1    0    0    -1  
$EndComp
Wire Wire Line
	7000 2950 7000 3000
Connection ~ 7000 3100
Wire Wire Line
	7150 2800 7150 3000
Wire Wire Line
	7150 3000 7000 3000
Connection ~ 7000 3000
Wire Wire Line
	7000 3000 7000 3100
Wire Wire Line
	7000 2650 7000 2600
Wire Wire Line
	7000 2600 5650 2600
Wire Wire Line
	5650 2600 5650 2900
Wire Wire Line
	7000 3500 7000 3550
Wire Wire Line
	7000 4100 6550 4100
$Comp
L Connector:Screw_Terminal_01x03 J1
U 1 1 5C055A0F
P 5600 2200
F 0 "J1" V 5566 2012 50  0000 R CNN
F 1 "Screw_Terminal_01x03" V 5475 2012 50  0000 R CNN
F 2 "TerminalBlock:TerminalBlock_bornier-3_P5.08mm" H 5600 2200 50  0001 C CNN
F 3 "~" H 5600 2200 50  0001 C CNN
	1    5600 2200
	0    -1   -1   0   
$EndComp
$Comp
L Connector:Screw_Terminal_01x02 J3
U 1 1 5C055C31
P 6850 3800
F 0 "J3" H 6930 3792 50  0000 L CNN
F 1 "Screw_Terminal_01x02" H 6930 3701 50  0000 L CNN
F 2 "TerminalBlock:TerminalBlock_bornier-2_P5.08mm" H 6850 3800 50  0001 C CNN
F 3 "~" H 6850 3800 50  0001 C CNN
	1    6850 3800
	1    0    0    -1  
$EndComp
Wire Wire Line
	6650 3900 6550 3900
Wire Wire Line
	6550 3900 6550 4100
Wire Wire Line
	5700 2400 5700 2450
Wire Wire Line
	5700 2450 7350 2450
Wire Wire Line
	7350 2450 7350 4200
Wire Wire Line
	7350 4200 5750 4200
Wire Wire Line
	5750 4200 5750 4050
Wire Wire Line
	5600 2400 5600 2500
Wire Wire Line
	5600 2500 7300 2500
Wire Wire Line
	7300 2500 7300 3550
Wire Wire Line
	7300 3550 7000 3550
Connection ~ 7000 3550
Wire Wire Line
	7000 3550 7000 4100
Wire Wire Line
	5500 2400 5500 2600
Wire Wire Line
	5500 2600 5650 2600
Connection ~ 5650 2600
$Comp
L Device:R R4
U 1 1 5C05C64F
P 6300 3750
F 0 "R4" H 6370 3796 50  0000 L CNN
F 1 "1k" H 6370 3705 50  0000 L CNN
F 2 "Resistor_THT:R_Axial_DIN0207_L6.3mm_D2.5mm_P10.16mm_Horizontal" V 6230 3750 50  0001 C CNN
F 3 "~" H 6300 3750 50  0001 C CNN
	1    6300 3750
	1    0    0    -1  
$EndComp
Wire Wire Line
	6050 3200 6300 3200
Wire Wire Line
	6300 3200 6300 3600
Wire Wire Line
	6300 3900 6300 4100
Connection ~ 6300 4100
Wire Wire Line
	6300 4100 5650 4100
$Comp
L Device:C C1
U 1 1 5C05FC97
P 6100 3850
F 0 "C1" H 6215 3896 50  0000 L CNN
F 1 "15pF" H 6215 3805 50  0000 L CNN
F 2 "Capacitor_THT:C_Disc_D5.0mm_W2.5mm_P5.00mm" H 6138 3700 50  0001 C CNN
F 3 "~" H 6100 3850 50  0001 C CNN
	1    6100 3850
	1    0    0    -1  
$EndComp
Wire Wire Line
	6050 3600 6100 3600
Wire Wire Line
	6100 3600 6100 3700
Wire Wire Line
	6100 4000 6100 4050
Wire Wire Line
	6100 4050 5750 4050
Connection ~ 5750 4050
Wire Wire Line
	5750 4050 5750 4000
Connection ~ 6550 4100
Wire Wire Line
	6300 4100 6550 4100
Wire Wire Line
	6050 3400 6650 3400
Wire Wire Line
	6650 3400 6650 3800
$Comp
L Connector_Generic:Conn_02x05_Odd_Even J4
U 1 1 5C044F2B
P 4050 3350
F 0 "J4" H 4100 3867 50  0000 C CNN
F 1 "Conn_02x07_Odd_Even" H 4100 3776 50  0000 C CNN
F 2 "Connector_PinHeader_2.54mm:PinHeader_2x07_P2.54mm_Vertical" H 4050 3350 50  0001 C CNN
F 3 "~" H 4050 3350 50  0001 C CNN
	1    4050 3350
	1    0    0    -1  
$EndComp
Wire Wire Line
	5250 3400 4700 3400
Wire Wire Line
	4700 3400 4700 3000
Wire Wire Line
	4700 3000 3750 3000
Wire Wire Line
	3750 3000 3750 3150
Wire Wire Line
	3750 3150 3850 3150
Wire Wire Line
	5250 3300 4750 3300
Wire Wire Line
	4750 3300 4750 2950
Wire Wire Line
	4750 2950 3700 2950
Wire Wire Line
	3700 2950 3700 3250
Wire Wire Line
	3700 3250 3850 3250
Wire Wire Line
	5250 3200 4800 3200
Wire Wire Line
	4800 3200 4800 2900
Wire Wire Line
	4800 2900 3650 2900
Wire Wire Line
	3650 2900 3650 3350
Wire Wire Line
	3650 3350 3850 3350
Wire Wire Line
	3850 3450 3600 3450
Wire Wire Line
	3600 3450 3600 2850
Wire Wire Line
	3600 2850 4850 2850
Wire Wire Line
	4850 2850 4850 3100
Wire Wire Line
	4850 3100 5250 3100
Wire Wire Line
	3850 3550 3750 3550
Wire Wire Line
	3750 3550 3750 3800
Wire Wire Line
	3750 3800 5250 3800
Wire Wire Line
	5250 3700 4400 3700
Wire Wire Line
	4400 3700 4400 3550
Wire Wire Line
	4400 3550 4350 3550
Wire Wire Line
	5250 3600 4450 3600
Wire Wire Line
	4450 3600 4450 3350
Wire Wire Line
	4450 3350 4350 3350
Wire Wire Line
	5250 3500 4500 3500
Wire Wire Line
	4500 3500 4500 3150
Wire Wire Line
	4500 3150 4350 3150
Wire Wire Line
	5650 4100 4600 4100
Wire Wire Line
	4600 4100 4600 3450
Wire Wire Line
	4600 3450 4350 3450
Connection ~ 5650 4100
$EndSCHEMATC
