\babel@toc {spanish}{}
\contentsline {chapter}{\numberline {1}Introducci\IeC {\'o}n}{1}{chapter.1}
\contentsline {section}{\numberline {1.1}Objetivo}{1}{section.1.1}
\contentsline {section}{\numberline {1.2}Pautas}{1}{section.1.2}
\contentsline {chapter}{\numberline {2}Desarrollo}{2}{chapter.2}
\contentsline {section}{\numberline {2.1}Diagrama en bloques}{2}{section.2.1}
\contentsline {chapter}{\numberline {3}Conclusiones}{4}{chapter.3}
\contentsline {section}{\numberline {3.1}Consideraciones}{4}{section.3.1}
\contentsline {section}{\numberline {3.2}Ideas propuestas}{4}{section.3.2}
\contentsline {section}{\numberline {3.3}Relacion del proyecto con la materia y Breve analisis}{4}{section.3.3}
